sim/noc_trace.vcd
$date
     Jun 27, 2026       12:35:25
$end

$version
 SystemC 2.3.4-Accellera --- Apr 22 2024 14:54:19
$end

$timescale
     1 ps
$end

$scope module SystemC $end
$var wire    1  aaaaa  clk       $end
$var wire    1  aaaab  rst       $end
$var wire    1  aaaac  in_valid_r0       $end
$var wire    1  aaaad  out_valid_r0       $end
$var wire    1  aaaae  in_credit_r0       $end
$var wire    1  aaaaf  in_valid_r1       $end
$var wire    1  aaaag  out_valid_r1       $end
$var wire    1  aaaah  in_credit_r1       $end
$var wire    1  aaaai  in_valid_r2       $end
$var wire    1  aaaaj  out_valid_r2       $end
$var wire    1  aaaak  in_credit_r2       $end
$var wire    1  aaaal  in_valid_r3       $end
$var wire    1  aaaam  out_valid_r3       $end
$var wire    1  aaaan  in_credit_r3       $end
$var wire    1  aaaao  in_valid_r4       $end
$var wire    1  aaaap  out_valid_r4       $end
$var wire    1  aaaaq  in_credit_r4       $end
$var wire    1  aaaar  in_valid_r5       $end
$var wire    1  aaaas  out_valid_r5       $end
$var wire    1  aaaat  in_credit_r5       $end
$var wire    1  aaaau  in_valid_r6       $end
$var wire    1  aaaav  out_valid_r6       $end
$var wire    1  aaaaw  in_credit_r6       $end
$var wire    1  aaaax  in_valid_r7       $end
$var wire    1  aaaay  out_valid_r7       $end
$var wire    1  aaaaz  in_credit_r7       $end
$upscope $end
$enddefinitions  $end

$comment
All initial values are dumped below at time 0 sec = 0 timescale units.
$end

$dumpvars
1aaaaa
1aaaab
0aaaac
0aaaad
1aaaae
0aaaaf
0aaaag
1aaaah
0aaaai
0aaaaj
1aaaak
0aaaal
0aaaam
1aaaan
0aaaao
0aaaap
1aaaaq
0aaaar
0aaaas
1aaaat
0aaaau
0aaaav
1aaaaw
0aaaax
0aaaay
1aaaaz
$end

#5000
0aaaaa

#10000
1aaaaa

#15000
0aaaaa

#20000
1aaaaa
0aaaab

#25000
0aaaaa

#30000
1aaaaa

#35000
0aaaaa

#40000
1aaaaa
1aaaar

#45000
0aaaaa

#50000
1aaaaa

#55000
0aaaaa

#60000
1aaaaa
0aaaar

#65000
0aaaaa

#70000
1aaaaa

#75000
0aaaaa

#80000
1aaaaa

#85000
0aaaaa

#90000
1aaaaa
1aaaas

#95000
0aaaaa

#100000
1aaaaa
0aaaas

#105000
0aaaaa

#110000
1aaaaa

#115000
0aaaaa

#120000
1aaaaa

#125000
0aaaaa

#130000
1aaaaa

#135000
0aaaaa

#140000
1aaaaa

#145000
0aaaaa

#150000
1aaaaa

#155000
0aaaaa

#160000
1aaaaa

#165000
0aaaaa

#170000
1aaaaa

#175000
0aaaaa

#180000
1aaaaa

#185000
0aaaaa

#190000
1aaaaa

#195000
0aaaaa

#200000
1aaaaa

#205000
0aaaaa

#210000
1aaaaa

#215000
0aaaaa

#220000
1aaaaa

#225000
0aaaaa

#230000
1aaaaa

#235000
0aaaaa

#240000
1aaaaa

#245000
0aaaaa

#250000
1aaaaa

#255000
0aaaaa

#260000
1aaaaa

#265000
0aaaaa

#270000
1aaaaa

#275000
0aaaaa

#280000
1aaaaa

#285000
0aaaaa

#290000
1aaaaa

#295000
0aaaaa

#300000
1aaaaa

#305000
0aaaaa

#310000
1aaaaa

#315000
0aaaaa

#320000
1aaaaa

#325000
0aaaaa

#330000
1aaaaa

#335000
0aaaaa

#340000
1aaaaa

#345000
0aaaaa

#350000
1aaaaa

#355000
0aaaaa

#360000
1aaaaa

#365000
0aaaaa

#370000
1aaaaa

#375000
0aaaaa

#380000
1aaaaa

#385000
0aaaaa

#390000
1aaaaa

#395000
0aaaaa

#400000
1aaaaa

#405000
0aaaaa

#410000
1aaaaa

#415000
0aaaaa

#420000
1aaaaa

#425000
0aaaaa

#430000
1aaaaa

#435000
0aaaaa

#440000
1aaaaa

#445000
0aaaaa

#450000
1aaaaa

#455000
0aaaaa

#460000
1aaaaa

#465000
0aaaaa

#470000
1aaaaa

#475000
0aaaaa

#480000
1aaaaa

#485000
0aaaaa

#490000
1aaaaa

#495000
0aaaaa

#500000
1aaaaa

#505000
0aaaaa

#510000
1aaaaa

#515000
0aaaaa

#520000
1aaaaa

#525000
0aaaaa

#530000
1aaaaa

#535000
0aaaaa

#540000
1aaaaa

#545000
0aaaaa

#550000
1aaaaa

#555000
0aaaaa

#560000
1aaaaa

#565000
0aaaaa

#570000
1aaaaa

#575000
0aaaaa

#580000
1aaaaa

#585000
0aaaaa

#590000
1aaaaa

#595000
0aaaaa

#600000
1aaaaa

#605000
0aaaaa

#610000
1aaaaa

#615000
0aaaaa

#620000
1aaaaa

#625000
0aaaaa

#630000
1aaaaa

#635000
0aaaaa

#640000
1aaaaa

#645000
0aaaaa

#650000
1aaaaa

#655000
0aaaaa

#660000
1aaaaa
1aaaau

#665000
0aaaaa

#670000
1aaaaa

#675000
0aaaaa

#680000
1aaaaa
0aaaau

#685000
0aaaaa

#690000
1aaaaa

#695000
0aaaaa

#700000
1aaaaa

#705000
0aaaaa

#710000
1aaaaa
1aaaav

#715000
0aaaaa

#720000
1aaaaa
0aaaav

